%!PS-Adobe-3.0 EPSF-3.0
%%Title: images/diagram.fig
%%Creator: fig2dev Version 3.2.9a
%%CreationDate: 2025-02-10 17:57:24
%%BoundingBox: 0 0 720 705
%%Magnification: 1.0000
%%EndComments
%%BeginProlog
/$F2psDict 200 dict def
$F2psDict begin
$F2psDict /mtrx matrix put
/col-1 {0 setgray} bind def
/col0 {0.000 0.000 0.000 srgb} bind def
/col1 {0.000 0.000 1.000 srgb} bind def
/col4 {1.000 0.000 0.000 srgb} bind def
/col7 {1.000 1.000 1.000 srgb} bind def
/col12 {0.000 0.560 0.000 srgb} bind def

end

/cp {closepath} bind def
/ef {eofill} bind def
/gr {grestore} bind def
/gs {gsave} bind def
/sa {save} bind def
/rs {restore} bind def
/l {lineto} bind def
/rl {rlineto} bind def
/m {moveto} bind def
/rm {rmoveto} bind def
/n {newpath} bind def
/s {stroke} bind def
/sh {show} bind def
/slc {setlinecap} bind def
/slj {setlinejoin} bind def
/slw {setlinewidth} bind def
/srgb {setrgbcolor} bind def
/rot {rotate} bind def
/sc {scale} bind def
/sd {setdash} bind def
/ff {findfont} bind def
/sf {setfont} bind def
/scf {scalefont} bind def
/sw {stringwidth} bind def
/tr {translate} bind def
/tnt {dup dup currentrgbcolor
  4 -2 roll dup 1 exch sub 3 -1 roll mul add
  4 -2 roll dup 1 exch sub 3 -1 roll mul add
  4 -2 roll dup 1 exch sub 3 -1 roll mul add srgb}
  bind def
/shd {dup dup currentrgbcolor 4 -2 roll mul 4 -2 roll mul
  4 -2 roll mul srgb} bind def
/xfig_image {image Data flushfile} def
/$F2psBegin {$F2psDict begin /$F2psEnteredState save def} def
/$F2psEnd {$F2psEnteredState restore end} def

/pageheader {
sa
n 0 705 m 0 0 l 720 0 l 720 705 l cp clip
-47.2 729.3 tr
1 -1 sc
$F2psBegin
10 setmiterlimit
0 slj 0 slc
 0.06299 0.06299 sc
} bind def
/pagefooter {
$F2psEnd
restore
} bind def
%%EndProlog
pageheader
%
% Fig objects follow
%
% 
% here starts figure with depth 50
% Polyline
0 slj
0 slc
7.500 slw
n 3060 3330 m
 4500 3330 l gs col0 s gr % Polyline
n 3165 3060 m 3060 3060 3060 4395 105 arcto 4 {pop} repeat
  3060 4500 4395 4500 105 arcto 4 {pop} repeat
  4500 4500 4500 3165 105 arcto 4 {pop} repeat
  4500 3060 3165 3060 105 arcto 4 {pop} repeat
 cp gs col0 s gr /Times-Roman ff 210.00 scf sf
3150 3285 m
gs 1 -1 sc (Package) col0 sh gr
/Times-Roman ff 180.00 scf sf
3150 3510 m
gs 1 -1 sc (.depth = 1) col0 sh gr
/Times-Roman ff 180.00 scf sf
3150 3735 m
gs 1 -1 sc (.logical_index =0) col0 sh gr
/Times-Roman ff 180.00 scf sf
3150 3960 m
gs 1 -1 sc (.os_index = 0) col0 sh gr
/Times-Roman ff 180.00 scf sf
3150 4185 m
gs 1 -1 sc (.sibling_rank=0) col0 sh gr
/Times-Roman ff 180.00 scf sf
3150 4410 m
gs 1 -1 sc (.arity=2) col0 sh gr
% Polyline
gs  clippath
8422 3593 m 8422 3607 l 8279 3630 l 8279 3570 l cp
eoclip
n 4500 3600 m
 8415 3600 l gs col1 s gr gr
% arrowhead
n 8279 3630 m 8399 3600 l 8279 3570 l 8279 3630 l  cp gs col1 1.00 shd ef gr  col1 s
% Polyline
gs  clippath
4493 3697 m 4493 3683 l 4636 3660 l 4636 3720 l cp
eoclip
n 8415 3690 m
 4500 3690 l gs col1 s gr gr
% arrowhead
n 4636 3660 m 4516 3690 l 4636 3720 l 4636 3660 l  cp gs col1 1.00 shd ef gr  col1 s
/Times-Roman ff 180.00 scf sf
4545 3510 m
gs 1 -1 sc (next_sibling) col1 sh gr
/Times-Roman ff 180.00 scf sf
7470 3870 m
gs 1 -1 sc (prev_sibling) col1 sh gr
/Times-Roman ff 180.00 scf sf
8640 2565 m
gs 1 -1 sc (last_child) dup sw pop neg 0 rm  col0 sh gr
/Times-Roman ff 180.00 scf sf
8190 2385 m
gs 1 -1 sc (children[1]) dup sw pop neg 0 rm  col0 sh gr
/Times-Roman ff 180.00 scf sf
2385 4725 m
gs 1 -1 sc (children[0]) col0 sh gr
/Times-Roman ff 180.00 scf sf
2205 4905 m
gs 1 -1 sc (first_child) col0 sh gr
/Times-Roman ff 180.00 scf sf
4185 4725 m
gs 1 -1 sc (children[1]) col0 sh gr
/Times-Roman ff 180.00 scf sf
4455 4905 m
gs 1 -1 sc (last_child) col0 sh gr
/Times-Roman ff 180.00 scf sf
7785 4725 m
gs 1 -1 sc (children[0]) col0 sh gr
/Times-Roman ff 180.00 scf sf
7605 4905 m
gs 1 -1 sc (first_child) col0 sh gr
/Times-Roman ff 180.00 scf sf
4275 2565 m
gs 1 -1 sc (first_child) col0 sh gr
/Times-Roman ff 180.00 scf sf
4725 2385 m
gs 1 -1 sc (children[0]) col0 sh gr
/Times-Roman ff 180.00 scf sf
4770 945 m
gs 1 -1 sc (Machine) col4 sh gr
/Times-Roman ff 180.00 scf sf
4770 1170 m
gs 1 -1 sc (level) col4 sh gr
/Times-Roman ff 180.00 scf sf
4770 1395 m
gs 1 -1 sc (depth=0) col4 sh gr
/Times-Roman ff 180.00 scf sf
2115 3285 m
gs 1 -1 sc (Package) col4 sh gr
/Times-Roman ff 180.00 scf sf
2115 3510 m
gs 1 -1 sc (level) col4 sh gr
/Times-Roman ff 180.00 scf sf
2115 3735 m
gs 1 -1 sc (depth=1) col4 sh gr
% Polyline
gs  clippath
4372 5843 m 4372 5857 l 4229 5880 l 4229 5820 l cp
eoclip
n 3105 5850 m
 4365 5850 l gs col1 s gr gr
% arrowhead
n 4229 5880 m 4349 5850 l 4229 5820 l 4229 5880 l  cp gs col1 1.00 shd ef gr  col1 s
% Polyline
gs  clippath
3098 5947 m 3098 5933 l 3241 5910 l 3241 5970 l cp
eoclip
n 4365 5940 m
 3105 5940 l gs col1 s gr gr
% arrowhead
n 3241 5910 m 3121 5940 l 3241 5970 l 3241 5910 l  cp gs col1 1.00 shd ef gr  col1 s
/Times-Roman ff 180.00 scf sf
3150 5760 m
gs 1 -1 sc (next_sibling) col1 sh gr
/Times-Roman ff 180.00 scf sf
3420 6120 m
gs 1 -1 sc (prev_sibling) col1 sh gr
% Polyline
gs  clippath
4372 6473 m 4372 6487 l 4229 6510 l 4229 6450 l cp
eoclip
n 3105 6480 m
 4365 6480 l gs col4 s gr gr
% arrowhead
n 4229 6510 m 4349 6480 l 4229 6450 l 4229 6510 l  cp gs col4 1.00 shd ef gr  col4 s
% Polyline
gs  clippath
3098 6577 m 3098 6563 l 3241 6540 l 3241 6600 l cp
eoclip
n 4365 6570 m
 3105 6570 l gs col4 s gr gr
% arrowhead
n 3241 6540 m 3121 6570 l 3241 6600 l 3241 6540 l  cp gs col4 1.00 shd ef gr  col4 s
/Times-Roman ff 180.00 scf sf
3150 6390 m
gs 1 -1 sc (next_cousin) col4 sh gr
/Times-Roman ff 180.00 scf sf
3375 6750 m
gs 1 -1 sc (prev_cousin) col4 sh gr
% Polyline
gs  clippath
7072 6473 m 7072 6487 l 6929 6510 l 6929 6450 l cp
eoclip
n 5805 6480 m
 7065 6480 l gs col4 s gr gr
% arrowhead
n 6929 6510 m 7049 6480 l 6929 6450 l 6929 6510 l  cp gs col4 1.00 shd ef gr  col4 s
% Polyline
gs  clippath
5798 6577 m 5798 6563 l 5941 6540 l 5941 6600 l cp
eoclip
n 7065 6570 m
 5805 6570 l gs col4 s gr gr
% arrowhead
n 5941 6540 m 5821 6570 l 5941 6600 l 5941 6540 l  cp gs col4 1.00 shd ef gr  col4 s
/Times-Roman ff 180.00 scf sf
5850 6390 m
gs 1 -1 sc (next_cousin) col4 sh gr
/Times-Roman ff 180.00 scf sf
6075 6750 m
gs 1 -1 sc (prev_cousin) col4 sh gr
/Times-Roman ff 180.00 scf sf
765 5625 m
gs 1 -1 sc (Cache) col4 sh gr
/Times-Roman ff 180.00 scf sf
765 5850 m
gs 1 -1 sc (level) col4 sh gr
/Times-Roman ff 180.00 scf sf
765 6075 m
gs 1 -1 sc (depth=2) col4 sh gr
/Times-Roman ff 180.00 scf sf
4230 7290 m
gs 1 -1 sc (first_child) col0 sh gr
/Times-Roman ff 180.00 scf sf
4230 7515 m
gs 1 -1 sc (last_child) col0 sh gr
/Times-Roman ff 180.00 scf sf
4230 7065 m
gs 1 -1 sc (children[0]) col0 sh gr
/Times-Roman ff 180.00 scf sf
6930 7290 m
gs 1 -1 sc (first_child) col0 sh gr
/Times-Roman ff 180.00 scf sf
6930 7515 m
gs 1 -1 sc (last_child) col0 sh gr
/Times-Roman ff 180.00 scf sf
6930 7065 m
gs 1 -1 sc (children[0]) col0 sh gr
/Times-Roman ff 180.00 scf sf
1530 7290 m
gs 1 -1 sc (first_child) col0 sh gr
/Times-Roman ff 180.00 scf sf
1530 7515 m
gs 1 -1 sc (last_child) col0 sh gr
/Times-Roman ff 180.00 scf sf
1530 7065 m
gs 1 -1 sc (children[0]) col0 sh gr
% Polyline
n 9765 8010 m
 11205 8010 l gs col0 s gr % Polyline
n 9870 7740 m 9765 7740 9765 9075 105 arcto 4 {pop} repeat
  9765 9180 11100 9180 105 arcto 4 {pop} repeat
  11205 9180 11205 7845 105 arcto 4 {pop} repeat
  11205 7740 9870 7740 105 arcto 4 {pop} repeat
 cp gs col0 s gr /Times-Roman ff 210.00 scf sf
9855 7965 m
gs 1 -1 sc (Core) col0 sh gr
/Times-Roman ff 180.00 scf sf
9855 9090 m
gs 1 -1 sc (.arity=1) col0 sh gr
/Times-Roman ff 180.00 scf sf
9855 8190 m
gs 1 -1 sc (.depth = 3) col0 sh gr
/Times-Roman ff 180.00 scf sf
9855 8415 m
gs 1 -1 sc (.logical_index = 3) col0 sh gr
/Times-Roman ff 180.00 scf sf
9855 8640 m
gs 1 -1 sc (.os_index = 1) col0 sh gr
/Times-Roman ff 180.00 scf sf
9855 8865 m
gs 1 -1 sc (.sibling_rank=0) col0 sh gr
% Polyline
gs  clippath
7072 8813 m 7072 8827 l 6929 8850 l 6929 8790 l cp
eoclip
n 5805 8820 m
 7065 8820 l gs col4 s gr gr
% arrowhead
n 6929 8850 m 7049 8820 l 6929 8790 l 6929 8850 l  cp gs col4 1.00 shd ef gr  col4 s
% Polyline
gs  clippath
5798 8917 m 5798 8903 l 5941 8880 l 5941 8940 l cp
eoclip
n 7065 8910 m
 5805 8910 l gs col4 s gr gr
% arrowhead
n 5941 8880 m 5821 8910 l 5941 8940 l 5941 8880 l  cp gs col4 1.00 shd ef gr  col4 s
/Times-Roman ff 180.00 scf sf
5850 8730 m
gs 1 -1 sc (next_cousin) col4 sh gr
/Times-Roman ff 180.00 scf sf
6075 9090 m
gs 1 -1 sc (prev_cousin) col4 sh gr
/Times-Roman ff 180.00 scf sf
765 7965 m
gs 1 -1 sc (Core) col4 sh gr
/Times-Roman ff 180.00 scf sf
765 8190 m
gs 1 -1 sc (level) col4 sh gr
/Times-Roman ff 180.00 scf sf
765 8415 m
gs 1 -1 sc (depth=3) col4 sh gr
/Times-Roman ff 180.00 scf sf
4230 9630 m
gs 1 -1 sc (first_child) col0 sh gr
/Times-Roman ff 180.00 scf sf
4230 9855 m
gs 1 -1 sc (last_child) col0 sh gr
/Times-Roman ff 180.00 scf sf
4230 9405 m
gs 1 -1 sc (children[0]) col0 sh gr
/Times-Roman ff 180.00 scf sf
6930 9630 m
gs 1 -1 sc (first_child) col0 sh gr
/Times-Roman ff 180.00 scf sf
6930 9855 m
gs 1 -1 sc (last_child) col0 sh gr
/Times-Roman ff 180.00 scf sf
6930 9405 m
gs 1 -1 sc (children[0]) col0 sh gr
/Times-Roman ff 180.00 scf sf
1530 9630 m
gs 1 -1 sc (first_child) col0 sh gr
/Times-Roman ff 180.00 scf sf
1530 9855 m
gs 1 -1 sc (last_child) col0 sh gr
/Times-Roman ff 180.00 scf sf
1530 9405 m
gs 1 -1 sc (children[0]) col0 sh gr
/Times-Roman ff 180.00 scf sf
9630 9630 m
gs 1 -1 sc (first_child) col0 sh gr
/Times-Roman ff 180.00 scf sf
9630 9855 m
gs 1 -1 sc (last_child) col0 sh gr
/Times-Roman ff 180.00 scf sf
9630 9405 m
gs 1 -1 sc (children[0]) col0 sh gr
% Polyline
gs  clippath
4372 11153 m 4372 11167 l 4229 11190 l 4229 11130 l cp
eoclip
n 3105 11160 m
 4365 11160 l gs col4 s gr gr
% arrowhead
n 4229 11190 m 4349 11160 l 4229 11130 l 4229 11190 l  cp gs col4 1.00 shd ef gr  col4 s
% Polyline
gs  clippath
3098 11257 m 3098 11243 l 3241 11220 l 3241 11280 l cp
eoclip
n 4365 11250 m
 3105 11250 l gs col4 s gr gr
% arrowhead
n 3241 11220 m 3121 11250 l 3241 11280 l 3241 11220 l  cp gs col4 1.00 shd ef gr  col4 s
/Times-Roman ff 180.00 scf sf
3150 11070 m
gs 1 -1 sc (next_cousin) col4 sh gr
/Times-Roman ff 180.00 scf sf
3375 11430 m
gs 1 -1 sc (prev_cousin) col4 sh gr
% Polyline
gs  clippath
7072 11153 m 7072 11167 l 6929 11190 l 6929 11130 l cp
eoclip
n 5805 11160 m
 7065 11160 l gs col4 s gr gr
% arrowhead
n 6929 11190 m 7049 11160 l 6929 11130 l 6929 11190 l  cp gs col4 1.00 shd ef gr  col4 s
% Polyline
gs  clippath
5798 11257 m 5798 11243 l 5941 11220 l 5941 11280 l cp
eoclip
n 7065 11250 m
 5805 11250 l gs col4 s gr gr
% arrowhead
n 5941 11220 m 5821 11250 l 5941 11280 l 5941 11220 l  cp gs col4 1.00 shd ef gr  col4 s
/Times-Roman ff 180.00 scf sf
5850 11070 m
gs 1 -1 sc (next_cousin) col4 sh gr
/Times-Roman ff 180.00 scf sf
6075 11430 m
gs 1 -1 sc (prev_cousin) col4 sh gr
/Times-Roman ff 180.00 scf sf
765 10305 m
gs 1 -1 sc (PU) col4 sh gr
/Times-Roman ff 180.00 scf sf
765 10530 m
gs 1 -1 sc (level) col4 sh gr
/Times-Roman ff 180.00 scf sf
765 10755 m
gs 1 -1 sc (depth=4) col4 sh gr
/Times-Roman ff 180.00 scf sf
9540 4725 m
gs 1 -1 sc (children[1]) col0 sh gr
/Times-Roman ff 180.00 scf sf
9810 4905 m
gs 1 -1 sc (last_child) col0 sh gr
% Polyline
n 9765 10350 m
 11205 10350 l gs col0 s gr % Polyline
n 9870 10080 m 9765 10080 9765 11415 105 arcto 4 {pop} repeat
  9765 11520 11100 11520 105 arcto 4 {pop} repeat
  11205 11520 11205 10185 105 arcto 4 {pop} repeat
  11205 10080 9870 10080 105 arcto 4 {pop} repeat
 cp gs col0 s gr /Times-Roman ff 180.00 scf sf
9855 10980 m
gs 1 -1 sc (.os_index = 3) col0 sh gr
/Times-Roman ff 210.00 scf sf
9855 10305 m
gs 1 -1 sc (PU) col0 sh gr
/Times-Roman ff 180.00 scf sf
9855 11205 m
gs 1 -1 sc (.sibling_rank=0) col0 sh gr
/Times-Roman ff 180.00 scf sf
9855 11430 m
gs 1 -1 sc (.arity=0) col0 sh gr
/Times-Roman ff 180.00 scf sf
9855 10530 m
gs 1 -1 sc (.depth = 4) col0 sh gr
/Times-Roman ff 180.00 scf sf
9855 10755 m
gs 1 -1 sc (.logical_index = 3) col0 sh gr
% Polyline
gs  clippath
9772 11153 m 9772 11167 l 9629 11190 l 9629 11130 l cp
eoclip
n 8505 11160 m
 9765 11160 l gs col4 s gr gr
% arrowhead
n 9629 11190 m 9749 11160 l 9629 11130 l 9629 11190 l  cp gs col4 1.00 shd ef gr  col4 s
% Polyline
gs  clippath
8498 11257 m 8498 11243 l 8641 11220 l 8641 11280 l cp
eoclip
n 9765 11250 m
 8505 11250 l gs col4 s gr gr
% arrowhead
n 8641 11220 m 8521 11250 l 8641 11280 l 8641 11220 l  cp gs col4 1.00 shd ef gr  col4 s
/Times-Roman ff 180.00 scf sf
8550 11070 m
gs 1 -1 sc (next_cousin) col4 sh gr
/Times-Roman ff 180.00 scf sf
8775 11430 m
gs 1 -1 sc (prev_cousin) col4 sh gr
% Polyline
gs  clippath
7684 5397 m 7677 5386 l 7783 5287 l 7816 5337 l cp
eoclip
n 9036 4488 m
 7686 5388 l gs col0 s gr gr
% arrowhead
n 7783 5287 m 7699 5379 l 7816 5337 l 7783 5287 l  cp gs 0.00 setgray ef gr  col0 s
% Polyline
gs  clippath
9137 4491 m 9144 4502 l 9038 4601 l 9005 4551 l cp
eoclip
n 9135 4500 m
 7785 5400 l gs col0 s gr gr
% arrowhead
n 9038 4601 m 9122 4509 l 9005 4551 l 9038 4601 l  cp gs 0.00 setgray ef gr  col0 s
% Polyline
n 8415 3330 m
 9855 3330 l gs col0 s gr % Polyline
n 8520 3060 m 8415 3060 8415 4395 105 arcto 4 {pop} repeat
  8415 4500 9750 4500 105 arcto 4 {pop} repeat
  9855 4500 9855 3165 105 arcto 4 {pop} repeat
  9855 3060 8520 3060 105 arcto 4 {pop} repeat
 cp gs col0 s gr % Polyline
gs  clippath
6439 2151 m 6444 2164 l 6315 2232 l 6296 2175 l cp
eoclip
n 6435 2160 m
 3735 3060 l gs col0 s gr gr
% arrowhead
n 6315 2232 m 6420 2165 l 6296 2175 l 6315 2232 l  cp gs 0.00 setgray ef gr  col0 s
% Polyline
gs  clippath
3506 3069 m 3501 3056 l 3630 2988 l 3649 3045 l cp
eoclip
n 6210 2160 m
 3510 3060 l gs col0 s gr gr
% arrowhead
n 3630 2988 m 3525 3055 l 3649 3045 l 3630 2988 l  cp gs 0.00 setgray ef gr  col0 s
% Polyline
gs  clippath
8422 4043 m 8422 4057 l 8279 4080 l 8279 4020 l cp
eoclip
n 4500 4050 m
 8415 4050 l gs col4 s gr gr
% arrowhead
n 8279 4080 m 8399 4050 l 8279 4020 l 8279 4080 l  cp gs col4 1.00 shd ef gr  col4 s
% Polyline
gs  clippath
4493 4147 m 4493 4133 l 4636 4110 l 4636 4170 l cp
eoclip
n 8415 4140 m
 4500 4140 l gs col4 s gr gr
% arrowhead
n 4636 4110 m 4516 4140 l 4636 4170 l 4636 4110 l  cp gs col4 1.00 shd ef gr  col4 s
% Polyline
gs  clippath
5190 5390 m 5183 5401 l 5051 5341 l 5084 5291 l cp
eoclip
n 3831 4492 m
 5181 5392 l gs col0 s gr gr
% arrowhead
n 5051 5341 m 5168 5383 l 5084 5291 l 5051 5341 l  cp gs 0.00 setgray ef gr  col0 s
% Polyline
gs  clippath
2284 5397 m 2277 5386 l 2383 5287 l 2416 5337 l cp
eoclip
n 3636 4488 m
 2286 5388 l gs col0 s gr gr
% arrowhead
n 2383 5287 m 2299 5379 l 2416 5337 l 2383 5287 l  cp gs 0.00 setgray ef gr  col0 s
% Polyline
gs  clippath
3726 4502 m 3733 4491 l 3865 4551 l 3832 4601 l cp
eoclip
n 5085 5400 m
 3735 4500 l gs col0 s gr gr
% arrowhead
n 3865 4551 m 3748 4509 l 3832 4601 l 3865 4551 l  cp gs 0.00 setgray ef gr  col0 s
% Polyline
gs  clippath
3737 4491 m 3744 4502 l 3638 4601 l 3605 4551 l cp
eoclip
n 3735 4500 m
 2385 5400 l gs col0 s gr gr
% arrowhead
n 3638 4601 m 3722 4509 l 3605 4551 l 3638 4601 l  cp gs 0.00 setgray ef gr  col0 s
% Polyline
gs  clippath
9369 3056 m 9364 3069 l 9221 3045 l 9240 2988 l cp
eoclip
n 6660 2160 m
 9360 3060 l gs col0 s gr gr
% arrowhead
n 9221 3045 m 9345 3055 l 9240 2988 l 9221 3045 l  cp gs 0.00 setgray ef gr  col0 s
% Polyline
gs  clippath
6426 2164 m 6431 2151 l 6574 2175 l 6555 2232 l cp
eoclip
n 6435 2160 m
 9135 3060 l gs col0 s gr gr
% arrowhead
n 6574 2175 m 6450 2165 l 6555 2232 l 6574 2175 l  cp gs 0.00 setgray ef gr  col0 s
% Polyline
n 10080 3015 m 2835 3015 l 2835 4545 l 10080 4545 l
 cp gs col4 s gr % Polyline
n 4365 5670 m
 5805 5670 l gs col0 s gr % Polyline
n 4470 5400 m 4365 5400 4365 6735 105 arcto 4 {pop} repeat
  4365 6840 5700 6840 105 arcto 4 {pop} repeat
  5805 6840 5805 5505 105 arcto 4 {pop} repeat
  5805 5400 4470 5400 105 arcto 4 {pop} repeat
 cp gs col0 s gr % Polyline
n 7065 5670 m
 8505 5670 l gs col0 s gr % Polyline
n 1665 5670 m
 3105 5670 l gs col0 s gr % Polyline
n 1770 5400 m 1665 5400 1665 6735 105 arcto 4 {pop} repeat
  1665 6840 3000 6840 105 arcto 4 {pop} repeat
  3105 6840 3105 5505 105 arcto 4 {pop} repeat
  3105 5400 1770 5400 105 arcto 4 {pop} repeat
 cp gs col0 s gr % Polyline
n 7170 5400 m 7065 5400 7065 6735 105 arcto 4 {pop} repeat
  7065 6840 8400 6840 105 arcto 4 {pop} repeat
  8505 6840 8505 5505 105 arcto 4 {pop} repeat
  8505 5400 7170 5400 105 arcto 4 {pop} repeat
 cp gs col0 s gr % Polyline
gs  clippath
2347 7747 m 2333 7747 l 2310 7604 l 2370 7604 l cp
eoclip
n 2340 6840 m
 2340 7740 l gs col0 s gr gr
% arrowhead
n 2310 7604 m 2340 7724 l 2370 7604 l 2310 7604 l  cp gs 0.00 setgray ef gr  col0 s
% Polyline
gs  clippath
2423 6833 m 2437 6833 l 2460 6976 l 2400 6976 l cp
eoclip
n 2430 6840 m
 2430 7740 l gs col0 s gr gr
% arrowhead
n 2460 6976 m 2430 6856 l 2400 6976 l 2460 6976 l  cp gs 0.00 setgray ef gr  col0 s
% Polyline
gs  clippath
5047 7747 m 5033 7747 l 5010 7604 l 5070 7604 l cp
eoclip
n 5040 6840 m
 5040 7740 l gs col0 s gr gr
% arrowhead
n 5010 7604 m 5040 7724 l 5070 7604 l 5010 7604 l  cp gs 0.00 setgray ef gr  col0 s
% Polyline
gs  clippath
5123 6833 m 5137 6833 l 5160 6976 l 5100 6976 l cp
eoclip
n 5130 6840 m
 5130 7740 l gs col0 s gr gr
% arrowhead
n 5160 6976 m 5130 6856 l 5100 6976 l 5160 6976 l  cp gs 0.00 setgray ef gr  col0 s
% Polyline
gs  clippath
7747 7747 m 7733 7747 l 7710 7604 l 7770 7604 l cp
eoclip
n 7740 6840 m
 7740 7740 l gs col0 s gr gr
% arrowhead
n 7710 7604 m 7740 7724 l 7770 7604 l 7710 7604 l  cp gs 0.00 setgray ef gr  col0 s
% Polyline
gs  clippath
7823 6833 m 7837 6833 l 7860 6976 l 7800 6976 l cp
eoclip
n 7830 6840 m
 7830 7740 l gs col0 s gr gr
% arrowhead
n 7860 6976 m 7830 6856 l 7800 6976 l 7860 6976 l  cp gs 0.00 setgray ef gr  col0 s
% Polyline
n 4365 8010 m
 5805 8010 l gs col0 s gr % Polyline
n 4470 7740 m 4365 7740 4365 9075 105 arcto 4 {pop} repeat
  4365 9180 5700 9180 105 arcto 4 {pop} repeat
  5805 9180 5805 7845 105 arcto 4 {pop} repeat
  5805 7740 4470 7740 105 arcto 4 {pop} repeat
 cp gs col0 s gr % Polyline
n 7065 8010 m
 8505 8010 l gs col0 s gr % Polyline
n 1665 8010 m
 3105 8010 l gs col0 s gr % Polyline
n 1770 7740 m 1665 7740 1665 9075 105 arcto 4 {pop} repeat
  1665 9180 3000 9180 105 arcto 4 {pop} repeat
  3105 9180 3105 7845 105 arcto 4 {pop} repeat
  3105 7740 1770 7740 105 arcto 4 {pop} repeat
 cp gs col0 s gr % Polyline
n 7170 7740 m 7065 7740 7065 9075 105 arcto 4 {pop} repeat
  7065 9180 8400 9180 105 arcto 4 {pop} repeat
  8505 9180 8505 7845 105 arcto 4 {pop} repeat
  8505 7740 7170 7740 105 arcto 4 {pop} repeat
 cp gs col0 s gr % Polyline
gs  clippath
2347 10087 m 2333 10087 l 2310 9944 l 2370 9944 l cp
eoclip
n 2340 9180 m
 2340 10080 l gs col0 s gr gr
% arrowhead
n 2310 9944 m 2340 10064 l 2370 9944 l 2310 9944 l  cp gs 0.00 setgray ef gr  col0 s
% Polyline
gs  clippath
2423 9173 m 2437 9173 l 2460 9316 l 2400 9316 l cp
eoclip
n 2430 9180 m
 2430 10080 l gs col0 s gr gr
% arrowhead
n 2460 9316 m 2430 9196 l 2400 9316 l 2460 9316 l  cp gs 0.00 setgray ef gr  col0 s
% Polyline
gs  clippath
5047 10087 m 5033 10087 l 5010 9944 l 5070 9944 l cp
eoclip
n 5040 9180 m
 5040 10080 l gs col0 s gr gr
% arrowhead
n 5010 9944 m 5040 10064 l 5070 9944 l 5010 9944 l  cp gs 0.00 setgray ef gr  col0 s
% Polyline
gs  clippath
5123 9173 m 5137 9173 l 5160 9316 l 5100 9316 l cp
eoclip
n 5130 9180 m
 5130 10080 l gs col0 s gr gr
% arrowhead
n 5160 9316 m 5130 9196 l 5100 9316 l 5160 9316 l  cp gs 0.00 setgray ef gr  col0 s
% Polyline
gs  clippath
7747 10087 m 7733 10087 l 7710 9944 l 7770 9944 l cp
eoclip
n 7740 9180 m
 7740 10080 l gs col0 s gr gr
% arrowhead
n 7710 9944 m 7740 10064 l 7770 9944 l 7710 9944 l  cp gs 0.00 setgray ef gr  col0 s
% Polyline
gs  clippath
7823 9173 m 7837 9173 l 7860 9316 l 7800 9316 l cp
eoclip
n 7830 9180 m
 7830 10080 l gs col0 s gr gr
% arrowhead
n 7860 9316 m 7830 9196 l 7800 9316 l 7860 9316 l  cp gs 0.00 setgray ef gr  col0 s
% Polyline
gs  clippath
10447 10087 m 10433 10087 l 10410 9944 l 10470 9944 l cp
eoclip
n 10440 9180 m
 10440 10080 l gs col0 s gr gr
% arrowhead
n 10410 9944 m 10440 10064 l 10470 9944 l 10410 9944 l  cp gs 0.00 setgray ef gr  col0 s
% Polyline
gs  clippath
10523 9173 m 10537 9173 l 10560 9316 l 10500 9316 l cp
eoclip
n 10530 9180 m
 10530 10080 l gs col0 s gr gr
% arrowhead
n 10560 9316 m 10530 9196 l 10500 9316 l 10560 9316 l  cp gs 0.00 setgray ef gr  col0 s
% Polyline
n 4365 10350 m
 5805 10350 l gs col0 s gr % Polyline
n 4470 10080 m 4365 10080 4365 11415 105 arcto 4 {pop} repeat
  4365 11520 5700 11520 105 arcto 4 {pop} repeat
  5805 11520 5805 10185 105 arcto 4 {pop} repeat
  5805 10080 4470 10080 105 arcto 4 {pop} repeat
 cp gs col0 s gr % Polyline
n 7065 10350 m
 8505 10350 l gs col0 s gr % Polyline
n 7170 10080 m 7065 10080 7065 11415 105 arcto 4 {pop} repeat
  7065 11520 8400 11520 105 arcto 4 {pop} repeat
  8505 11520 8505 10185 105 arcto 4 {pop} repeat
  8505 10080 7170 10080 105 arcto 4 {pop} repeat
 cp gs col0 s gr % Polyline
n 1665 10350 m
 3105 10350 l gs col0 s gr % Polyline
n 1770 10080 m 1665 10080 1665 11415 105 arcto 4 {pop} repeat
  1665 11520 3000 11520 105 arcto 4 {pop} repeat
  3105 11520 3105 10185 105 arcto 4 {pop} repeat
  3105 10080 1770 10080 105 arcto 4 {pop} repeat
 cp gs col0 s gr % Polyline
n 11385 10035 m 1485 10035 l 1485 11565 l 11385 11565 l
 cp gs col4 s gr % Polyline
gs  clippath
4372 8813 m 4372 8827 l 4229 8850 l 4229 8790 l cp
eoclip
n 3105 8820 m
 4365 8820 l gs col4 s gr gr
% arrowhead
n 4229 8850 m 4349 8820 l 4229 8790 l 4229 8850 l  cp gs col4 1.00 shd ef gr  col4 s
% Polyline
gs  clippath
3098 8917 m 3098 8903 l 3241 8880 l 3241 8940 l cp
eoclip
n 4365 8910 m
 3105 8910 l gs col4 s gr gr
% arrowhead
n 3241 8880 m 3121 8910 l 3241 8940 l 3241 8880 l  cp gs col4 1.00 shd ef gr  col4 s
% Polyline
gs  clippath
9772 8813 m 9772 8827 l 9629 8850 l 9629 8790 l cp
eoclip
n 8505 8820 m
 9765 8820 l gs col4 s gr gr
% arrowhead
n 9629 8850 m 9749 8820 l 9629 8790 l 9629 8850 l  cp gs col4 1.00 shd ef gr  col4 s
% Polyline
gs  clippath
8498 8917 m 8498 8903 l 8641 8880 l 8641 8940 l cp
eoclip
n 9765 8910 m
 8505 8910 l gs col4 s gr gr
% arrowhead
n 8641 8880 m 8521 8910 l 8641 8940 l 8641 8880 l  cp gs col4 1.00 shd ef gr  col4 s
% Polyline
gs  clippath
9774 8193 m 9762 8199 l 9674 8084 l 9727 8056 l cp
eoclip
n 8505 5850 m
 9765 8190 l gs col1 s gr gr
% arrowhead
n 9674 8084 m 9757 8176 l 9727 8056 l 9674 8084 l  cp gs col1 1.00 shd ef gr  col1 s
% Polyline
gs  clippath
8496 6027 m 8508 6021 l 8597 6135 l 8544 6164 l cp
eoclip
n 9765 8325 m
 8505 6030 l gs col1 s gr gr
% arrowhead
n 8597 6135 m 8513 6044 l 8544 6164 l 8597 6135 l  cp gs col1 1.00 shd ef gr  col1 s
% Polyline
n 8685 5355 m 1485 5355 l 1485 6885 l 8685 6885 l
 cp gs col4 s gr % Polyline
gs  clippath
10537 7747 m 10523 7747 l 10500 7604 l 10560 7604 l cp
eoclip
n 9231 4492 m 10530 5400 l 10530 6840 l
 10530 7740 l gs col0 s gr gr
% arrowhead
n 10500 7604 m 10530 7724 l 10560 7604 l 10500 7604 l  cp gs 0.00 setgray ef gr  col0 s
% Polyline
gs  clippath
9126 4502 m 9133 4491 l 9264 4553 l 9230 4602 l cp
eoclip
n 9135 4500 m 10440 5400 l 10440 6840 l
 10440 7740 l gs col0 s gr gr
% arrowhead
n 9264 4553 m 9148 4509 l 9230 4602 l 9264 4553 l  cp gs 0.00 setgray ef gr  col0 s
% Polyline
n 11385 7695 m 1485 7695 l 1485 9225 l 11385 9225 l
 cp gs col4 s gr % Polyline
n 10530 1755 m
 11970 1755 l gs col0 s gr % Polyline
n 5715 720 m
 7245 720 l gs col0 s gr % Polyline
n 5820 450 m 5715 450 5715 2055 105 arcto 4 {pop} repeat
  5715 2160 7140 2160 105 arcto 4 {pop} repeat
  7245 2160 7245 555 105 arcto 4 {pop} repeat
  7245 450 5820 450 105 arcto 4 {pop} repeat
 cp gs col0 s gr % Polyline
n 7515 405 m 5490 405 l 5490 2205 l 7515 2205 l
 cp gs col4 s gr % Polyline
gs  clippath
7229 2013 m 7230 2000 l 7374 1985 l 7370 2045 l cp
eoclip
n 7236 2007 m
 10530 2205 l gs col0 s gr gr
% arrowhead
n 7374 1985 m 7252 2008 l 7370 2045 l 7374 1985 l  cp gs 0.00 setgray ef gr  col0 s
% Polyline
n 10635 1440 m 10530 1440 10530 2595 105 arcto 4 {pop} repeat
  10530 2700 11910 2700 105 arcto 4 {pop} repeat
  12015 2700 12015 1545 105 arcto 4 {pop} repeat
  12015 1440 10635 1440 105 arcto 4 {pop} repeat
 cp gs col0 s gr % Polyline
15.000 slw
 [60] 0 sd
gs  clippath
10541 2150 m 10540 2171 l 10392 2181 l 10396 2121 l cp
eoclip
n 7245 1935 m
 10530 2160 l gs col12 s gr gr
 [] 0 sd
% arrowhead
7.500 slw
n 10392 2181 m 10514 2159 l 10396 2121 l 10392 2181 l  cp gs col12 1.00 shd ef gr  col12 s
/Times-Roman ff 180.00 scf sf
8415 2970 m
gs 1 -1 sc (parent) dup sw pop neg 0 rm  col0 sh gr
/Times-Roman ff 180.00 scf sf
8145 5310 m
gs 1 -1 sc (parent) col0 sh gr
/Times-Roman ff 180.00 scf sf
8505 4410 m
gs 1 -1 sc (.arity=2) col0 sh gr
/Times-Roman ff 180.00 scf sf
8505 3735 m
gs 1 -1 sc (.logical_index = 1) col0 sh gr
/Times-Roman ff 180.00 scf sf
8505 3510 m
gs 1 -1 sc (.depth = 1) col0 sh gr
/Times-Roman ff 210.00 scf sf
8505 3285 m
gs 1 -1 sc (Package) col0 sh gr
/Times-Roman ff 180.00 scf sf
8505 4185 m
gs 1 -1 sc (.sibling_rank=1) col0 sh gr
/Times-Roman ff 180.00 scf sf
4455 2970 m
gs 1 -1 sc (parent) col0 sh gr
/Times-Roman ff 180.00 scf sf
4545 3960 m
gs 1 -1 sc (next_cousin) col4 sh gr
/Times-Roman ff 180.00 scf sf
7470 4320 m
gs 1 -1 sc (prev_cousin) col4 sh gr
/Times-Roman ff 180.00 scf sf
2745 5310 m
gs 1 -1 sc (parent) col0 sh gr
/Times-Roman ff 180.00 scf sf
4275 5310 m
gs 1 -1 sc (parent) col0 sh gr
/Times-Roman ff 180.00 scf sf
7155 6750 m
gs 1 -1 sc (.arity=1) col0 sh gr
/Times-Roman ff 210.00 scf sf
1755 5625 m
gs 1 -1 sc (Cache) col0 sh gr
/Times-Roman ff 210.00 scf sf
4455 5625 m
gs 1 -1 sc (Cache) col0 sh gr
/Times-Roman ff 210.00 scf sf
7155 5625 m
gs 1 -1 sc (Cache) col0 sh gr
/Times-Roman ff 180.00 scf sf
1755 6075 m
gs 1 -1 sc (.logical_index = 0) col0 sh gr
/Times-Roman ff 180.00 scf sf
4455 6075 m
gs 1 -1 sc (.logical_index = 1) col0 sh gr
/Times-Roman ff 180.00 scf sf
1755 6300 m
gs 1 -1 sc (.os_index = 0) col0 sh gr
/Times-Roman ff 180.00 scf sf
1755 6525 m
gs 1 -1 sc (.sibling_rank=0) col0 sh gr
/Times-Roman ff 180.00 scf sf
1755 6750 m
gs 1 -1 sc (.arity=1) col0 sh gr
/Times-Roman ff 180.00 scf sf
4455 6750 m
gs 1 -1 sc (.arity=1) col0 sh gr
/Times-Roman ff 180.00 scf sf
1755 5850 m
gs 1 -1 sc (.depth = 2) col0 sh gr
/Times-Roman ff 180.00 scf sf
4455 5850 m
gs 1 -1 sc (.depth = 2) col0 sh gr
/Times-Roman ff 180.00 scf sf
7155 5850 m
gs 1 -1 sc (.depth = 2) col0 sh gr
/Times-Roman ff 180.00 scf sf
7155 6075 m
gs 1 -1 sc (.logical_index = 2) col0 sh gr
/Times-Roman ff 180.00 scf sf
4455 6300 m
gs 1 -1 sc (.os_index = 1) col0 sh gr
/Times-Roman ff 180.00 scf sf
4455 6525 m
gs 1 -1 sc (.sibling_rank=1) col0 sh gr
/Times-Roman ff 180.00 scf sf
7155 6300 m
gs 1 -1 sc (.os_index = 0) col0 sh gr
/Times-Roman ff 180.00 scf sf
7155 6525 m
gs 1 -1 sc (.sibling_rank=0) col0 sh gr
/Times-Roman ff 180.00 scf sf
2475 7650 m
gs 1 -1 sc (parent) col0 sh gr
/Times-Roman ff 180.00 scf sf
5175 7650 m
gs 1 -1 sc (parent) col0 sh gr
/Times-Roman ff 180.00 scf sf
7875 7650 m
gs 1 -1 sc (parent) col0 sh gr
/Times-Roman ff 180.00 scf sf
7155 9090 m
gs 1 -1 sc (.arity=1) col0 sh gr
/Times-Roman ff 210.00 scf sf
1755 7965 m
gs 1 -1 sc (Core) col0 sh gr
/Times-Roman ff 210.00 scf sf
4455 7965 m
gs 1 -1 sc (Core) col0 sh gr
/Times-Roman ff 210.00 scf sf
7155 7965 m
gs 1 -1 sc (Core) col0 sh gr
/Times-Roman ff 180.00 scf sf
1755 8415 m
gs 1 -1 sc (.logical_index = 0) col0 sh gr
/Times-Roman ff 180.00 scf sf
4455 8415 m
gs 1 -1 sc (.logical_index = 1) col0 sh gr
/Times-Roman ff 180.00 scf sf
1755 8640 m
gs 1 -1 sc (.os_index = 0) col0 sh gr
/Times-Roman ff 180.00 scf sf
1755 8865 m
gs 1 -1 sc (.sibling_rank=0) col0 sh gr
/Times-Roman ff 180.00 scf sf
1755 9090 m
gs 1 -1 sc (.arity=1) col0 sh gr
/Times-Roman ff 180.00 scf sf
4455 9090 m
gs 1 -1 sc (.arity=1) col0 sh gr
/Times-Roman ff 180.00 scf sf
1755 8190 m
gs 1 -1 sc (.depth = 3) col0 sh gr
/Times-Roman ff 180.00 scf sf
4455 8190 m
gs 1 -1 sc (.depth = 3) col0 sh gr
/Times-Roman ff 180.00 scf sf
7155 8190 m
gs 1 -1 sc (.depth = 3) col0 sh gr
/Times-Roman ff 180.00 scf sf
7155 8415 m
gs 1 -1 sc (.logical_index = 2) col0 sh gr
/Times-Roman ff 180.00 scf sf
4455 8640 m
gs 1 -1 sc (.os_index = 1) col0 sh gr
/Times-Roman ff 180.00 scf sf
4455 8865 m
gs 1 -1 sc (.sibling_rank=0) col0 sh gr
/Times-Roman ff 180.00 scf sf
7155 8640 m
gs 1 -1 sc (.os_index = 0) col0 sh gr
/Times-Roman ff 180.00 scf sf
7155 8865 m
gs 1 -1 sc (.sibling_rank=0) col0 sh gr
/Times-Roman ff 180.00 scf sf
2475 9990 m
gs 1 -1 sc (parent) col0 sh gr
/Times-Roman ff 180.00 scf sf
5175 9990 m
gs 1 -1 sc (parent) col0 sh gr
/Times-Roman ff 180.00 scf sf
7875 9990 m
gs 1 -1 sc (parent) col0 sh gr
/Times-Roman ff 180.00 scf sf
10575 9990 m
gs 1 -1 sc (parent) col0 sh gr
/Times-Roman ff 180.00 scf sf
1755 10980 m
gs 1 -1 sc (.os_index = 0) col0 sh gr
/Times-Roman ff 180.00 scf sf
4455 10980 m
gs 1 -1 sc (.os_index = 2) col0 sh gr
/Times-Roman ff 180.00 scf sf
7155 10980 m
gs 1 -1 sc (.os_index = 1) col0 sh gr
/Times-Roman ff 180.00 scf sf
1755 11205 m
gs 1 -1 sc (.sibling_rank=0) col0 sh gr
/Times-Roman ff 210.00 scf sf
1755 10305 m
gs 1 -1 sc (PU) col0 sh gr
/Times-Roman ff 210.00 scf sf
4455 10305 m
gs 1 -1 sc (PU) col0 sh gr
/Times-Roman ff 210.00 scf sf
7155 10305 m
gs 1 -1 sc (PU) col0 sh gr
/Times-Roman ff 180.00 scf sf
4455 11205 m
gs 1 -1 sc (.sibling_rank=0) col0 sh gr
/Times-Roman ff 180.00 scf sf
7155 11205 m
gs 1 -1 sc (.sibling_rank=0) col0 sh gr
/Times-Roman ff 180.00 scf sf
1755 11430 m
gs 1 -1 sc (.arity=0) col0 sh gr
/Times-Roman ff 180.00 scf sf
4455 11430 m
gs 1 -1 sc (.arity=0) col0 sh gr
/Times-Roman ff 180.00 scf sf
7155 11430 m
gs 1 -1 sc (.arity=0) col0 sh gr
/Times-Roman ff 180.00 scf sf
7155 10530 m
gs 1 -1 sc (.depth = 4) col0 sh gr
/Times-Roman ff 180.00 scf sf
7155 10755 m
gs 1 -1 sc (.logical_index = 2) col0 sh gr
/Times-Roman ff 180.00 scf sf
4455 10530 m
gs 1 -1 sc (.depth = 4) col0 sh gr
/Times-Roman ff 180.00 scf sf
4455 10755 m
gs 1 -1 sc (.logical_index = 1) col0 sh gr
/Times-Roman ff 180.00 scf sf
1755 10530 m
gs 1 -1 sc (.depth = 4) col0 sh gr
/Times-Roman ff 180.00 scf sf
1755 10755 m
gs 1 -1 sc (.logical_index = 0) col0 sh gr
/Times-Roman ff 180.00 scf sf
3150 8730 m
gs 1 -1 sc (next_cousin) col4 sh gr
/Times-Roman ff 180.00 scf sf
3375 9090 m
gs 1 -1 sc (prev_cousin) col4 sh gr
/Times-Roman ff 180.00 scf sf
8550 8730 m
gs 1 -1 sc (next_cousin) col4 sh gr
/Times-Roman ff 180.00 scf sf
8775 9090 m
gs 1 -1 sc (prev_cousin) col4 sh gr
/Times-Roman ff 180.00 scf sf
8820 8280 m
gs 1 -1 sc (prev_sibling) col1 sh gr
/Times-Roman ff 180.00 scf sf
8730 6120 m
gs 1 -1 sc (next_sibling) col1 sh gr
/Times-Roman ff 180.00 scf sf
9945 7650 m
gs 1 -1 sc (parent) col0 sh gr
/Times-Roman ff 180.00 scf sf
10620 2160 m
gs 1 -1 sc (.logical_index = 0) col0 sh gr
/Times-Roman ff 180.00 scf sf
8505 3960 m
gs 1 -1 sc (.os_index = 1) col0 sh gr
/Times-Roman ff 180.00 scf sf
10620 2610 m
gs 1 -1 sc (.sibling_rank = 0) col0 sh gr
/Times-Roman ff 180.00 scf sf
10620 2385 m
gs 1 -1 sc (.os_index = 0) col0 sh gr
/Times-Roman ff 180.00 scf sf
10620 1935 m
gs 1 -1 sc (.depth = -3) col12 sh gr
/Times-Roman ff 210.00 scf sf
5805 675 m
gs 1 -1 sc (Machine) col0 sh gr
/Times-Roman ff 180.00 scf sf
5805 900 m
gs 1 -1 sc (.depth = 0) col0 sh gr
/Times-Roman ff 180.00 scf sf
5805 1125 m
gs 1 -1 sc (.logical_index = 0) col0 sh gr
/Times-Roman ff 180.00 scf sf
5805 1350 m
gs 1 -1 sc (.os_index = -1) col0 sh gr
/Times-Roman ff 180.00 scf sf
5805 1575 m
gs 1 -1 sc (.sibling_rank=0) col0 sh gr
/Times-Roman ff 180.00 scf sf
5805 1800 m
gs 1 -1 sc (.arity=2) col0 sh gr
/Times-Roman ff 180.00 scf sf
5805 2025 m
gs 1 -1 sc (.memory_arity=1) col12 sh gr
/Times-Roman ff 210.00 scf sf
10620 1710 m
gs 1 -1 sc (NUMA Node) col0 sh gr
/Times-Roman ff 180.00 scf sf
9540 2340 m
gs 1 -1 sc (parent) col0 sh gr
/Times-Roman ff 180.00 scf sf
8775 2025 m
gs 1 -1 sc (memory_first_child) col12 sh gr
% here ends figure;
pagefooter
showpage
%%Trailer
%EOF
